13587:
3.9
13588:
3.6
4.3
4.3
3.6
4.6
13589:
1.0
1.2
1.6
2.9
1.5
1.1
1.2
2.3
2.3
13614:
4.0
4.3
4.0
4.6
4.5
4.7
3.9
4.6
4.7
4.5
3.9
3.9
3.6
4.5
4.7
4.2
4.4
4.6
4.3
4.5
5.0
5.0
4.2
4.6
4.4
3.9
4.5
3.8
4.3
4.0
4.6
3.8
4.4
4.4
4.0
3.8
4.4
4.9
4.1
3.7
4.5
4.5
3.8
4.1
4.8
4.8
3.2
3.5
4.0
4.6
4.4
4.2
5.0
4.1
3.9
4.8
5.0
4.5
3.3
3.9
4.8
3.4
4.7
4.1
3.9
4.7
5.0
4.6
4.5
4.1
4.3
4.0
4.7
4.4
4.2
2.4
4.6
4.8
4.9
4.1
3.9
3.8
4.1
4.3
5.0
4.2
4.1
4.2
3.9
5.0
4.7
4.3
4.5
4.8
4.2
4.6
4.2
5.0
4.5
4.1
4.3
4.2
4.3
4.4
4.5
4.2
4.4
3.2
3.5
4.5
3.8
4.7
3.9
4.4
4.0
3.9
3.7
4.2
3.9
4.2
4.3
3.7
4.3
4.5
4.1
3.8
3.7
3.4
4.9
4.9
3.8
4.0
4.8
4.7
4.9
4.3
4.6
5.0
5.0
4.3
3.6
4.4
4.6
4.7
4.4
4.9
4.5
3.2
4.0
4.1
3.7
4.8
4.2
4.0
4.9
4.4
4.3
5.0
4.0
4.3
4.2
4.6
3.2
4.5
4.5
3.6
4.2
4.0
4.2
4.2
3.9
4.1
3.7
4.7
5.0
3.4
4.3
4.5
4.0
3.7
4.0
4.4
4.9
3.8
5.0
4.5
5.0
4.2
4.5
3.9
4.4
4.8
4.8
4.7
4.9
4.7
4.5
4.7
4.4
3.5
4.0
4.2
4.2
3.6
4.3
5.0
4.4
4.8
4.3
4.2
4.9
4.8
3.7
4.2
4.5
4.2
4.0
3.8
4.6
4.3
3.9
4.3
4.1
4.9
4.7
4.5
4.9
5.0
4.2
3.4
3.8
4.4
4.5
3.4
4.5
4.3
4.6
4.5
4.3
3.6
4.6
3.3
4.1
4.6
5.0
5.0
3.9
4.3
4.2
4.8
4.0
5.0
3.5
4.6
4.6
4.2
3.7
4.4
5.0
5.0
5.0
4.5
4.1
4.9
3.9
4.1
3.5
4.3
4.6
3.9
3.3
5.0
4.6
4.2
4.6
4.6
3.5
4.5
4.1
5.0
5.0
4.0
3.7
4.4
3.2
3.6
4.5
4.8
4.9
3.7
4.4
4.7
3.8
4.9
5.0
5.0
4.9
4.4
4.6
4.7
4.4
4.7
4.1
4.4
4.5
3.9
3.4
3.8
4.5
4.6
4.4
4.1
4.4
3.7
4.9
4.6
4.6
4.3
4.1
4.7
5.0
4.2
3.7
4.7
4.2
4.0
4.5
4.0
4.4
5.0
4.9
4.2
4.9
4.2
4.3
4.2
4.3
4.1
3.8
4.6
5.0
4.6
4.9
4.2
5.0
3.9
3.9
4.1
5.0
4.5
4.0
4.3
5.0
5.0
4.0
4.3
4.3
2.6
4.2
3.5
4.9
4.5
4.3
3.7
4.2
4.2
4.5
4.9
4.9
3.8
4.3
4.5
3.6
4.4
4.4
4.9
4.4
4.1
4.8
4.3
4.0
4.7
4.6
3.6
3.3
4.5
4.1
4.6
4.6
4.1
5.0
4.2
4.9
4.2
4.2
3.7
4.7
4.2
4.6
3.7
4.6
3.6
4.0
4.5
4.1
4.9
4.6
4.2
4.2
4.5
4.9
3.7
4.4
4.1
4.4
3.9
3.8
4.7
4.2
4.7
4.6
4.0
3.9
4.1
3.6
4.6
4.1
4.9
4.0
4.8
4.9
4.0
4.5
4.3
4.6
4.8
4.5
3.9
4.8
4.5
3.5
5.0
5.0
3.8
5.0
4.4
5.0
4.5
4.6
3.9
5.0
5.0
4.4
4.2
4.4
5.0
4.3
4.3
3.8
4.3
5.0
5.0
3.7
4.5
4.3
4.4
3.7
4.3
4.0
5.0
4.8
3.7
3.9
5.0
4.3
3.7
4.5
4.6
4.6
4.6
4.4
4.9
3.7
3.9
4.7
3.6
4.6
4.4
4.5
4.8
4.3
4.3
3.9
3.5
3.8
4.9
4.1
4.6
4.6
4.5
4.5
3.3
4.8
4.6
3.8
4.8
4.7
4.8
4.1
4.8
4.6
4.2
4.3
4.5
4.4
3.9
4.6
4.5
4.5
3.4
4.2
3.9
4.9
4.0
4.4
4.8
3.1
4.2
4.4
4.4
4.6
4.2
4.2
4.9
3.9
4.0
4.2
4.3
4.5
4.3
4.0
3.8
3.9
4.9
3.7
4.4
5.0
3.9
4.0
4.3
4.7
4.4
4.9
4.9
3.5
3.6
4.3
4.0
5.0
4.2
3.5
3.7
4.9
5.0
4.8
4.3
4.6
4.7
4.7
4.4
5.0
3.1
4.7
3.9
3.6
4.7
4.2
5.0
3.6
4.5
4.7
3.9
4.1
5.0
3.3
5.0
4.3
3.1
4.3
4.5
5.0
3.9
4.0
4.5
3.9
4.0
4.0
4.5
4.4
3.5
4.3
4.8
4.2
4.9
4.4
3.5
4.8
4.6
4.1
5.0
4.0
4.7
4.8
4.3
3.9
3.8
5.0
4.2
4.8
4.4
4.4
3.6
4.5
3.6
4.4
4.4
4.1
4.5
4.1
4.7
4.8
3.7
3.3
5.0
3.6
4.2
4.3
3.6
4.2
5.0
4.2
4.1
4.5
4.7
4.1
5.0
4.8
4.0
4.1
3.1
4.5
3.8
4.9
5.0
4.2
5.0
4.2
3.6
4.2
4.1
4.8
4.4
3.7
3.8
4.8
3.3
4.4
5.0
5.0
4.4
3.8
2.8
4.1
4.8
3.9
5.0
4.2
4.9
3.9
5.0
4.3
4.3
4.6
5.0
4.1
3.5
4.7
4.7
4.4
4.4
4.2
4.4
3.3
4.4
5.0
4.7
4.1
3.3
4.2
3.9
4.6
4.0
4.4
4.6
3.9
3.1
5.0
4.2
4.6
4.2
4.2
4.5
4.8
4.3
4.6
3.9
4.7
4.1
4.2
3.4
4.6
4.0
3.8
4.9
4.2
4.4
3.8
4.2
4.5
4.4
4.0
5.0
4.4
4.7
4.3
4.2
3.8
4.2
5.0
4.4
4.2
4.5
3.6
4.3
4.1
3.8
3.7
4.3
5.0
4.2
4.0
5.0
5.0
4.6
4.2
4.0
4.5
4.2
4.7
4.0
4.4
5.0
3.7
4.2
4.4
3.8
5.0
4.0
4.6
4.0
4.5
4.3
4.6
4.3
3.8
3.7
4.7
4.5
4.0
4.3
4.5
4.5
4.4
3.4
4.9
4.7
4.4
4.3
4.4
4.5
4.2
4.4
5.0
4.4
3.9
3.6
4.3
4.1
4.3
4.8
3.6
5.0
4.7
4.3
4.6
3.9
4.6
4.3
4.7
4.8
3.6
4.5
4.0
3.7
3.7
4.4
4.4
3.6
3.6
4.3
4.5
4.3
4.9
4.2
5.0
4.3
4.1
4.3
3.9
4.3
4.2
4.5
3.8
4.2
4.4
4.2
3.6
4.6
4.3
3.9
4.6
3.7
4.2
3.9
4.6
3.2
4.3
4.5
3.8
4.2
3.9
5.0
4.6
4.4
5.0
4.8
5.0
4.0
5.0
3.7
4.4
4.4
5.0
4.4
4.0
3.8
4.6
4.5
5.0
4.3
3.0
4.6
5.0
3.3
4.3
4.2
4.7
4.3
4.2
4.6
4.5
3.9
4.5
4.8
4.5
4.3
4.8
4.3
4.5
4.9
3.9
5.0
5.0
3.7
4.1
4.2
4.4
4.5
3.9
5.0
4.6
5.0
4.0
3.1
4.9
4.3
4.7
4.7
4.3
4.7
4.7
5.0
3.9
4.9
5.0
4.2
4.7
4.4
3.8
4.0
4.7
4.7
4.5
3.5
4.1
4.1
4.2
3.8
3.5
4.0
5.0
4.5
4.4
4.6
4.7
4.9
5.0
3.6
5.0
4.1
3.7
4.1
4.1
4.1
4.4
3.5
5.0
1.9
4.4
3.8
4.3
4.2
4.8
3.9
4.7
3.8
5.0
4.0
4.8
5.0
5.0
4.5
4.5
4.4
4.6
4.4
5.0
4.1
3.8
4.4
4.0
4.8
4.3
4.0
4.6
4.6
2.1
4.0
4.5
4.8
4.9
3.5
5.0
4.0
4.5
3.6
4.6
4.3
3.6
4.1
3.7
4.5
3.6
3.9
5.0
4.8
4.6
4.1
4.3
4.2
4.2
4.1
3.8
4.2
5.0
4.4
4.3
4.3
3.3
4.4
4.9
4.5
4.5
4.0
4.5
3.2
5.0
3.9
4.8
4.3
4.1
4.2
5.0
4.8
3.3
4.1
4.6
3.8
4.8
4.5
3.9
4.6
4.7
4.5
4.3
4.2
4.3
5.0
4.9
3.8
4.0
4.7
4.7
4.5
4.3
3.8
3.1
4.3
3.6
4.7
3.9
3.2
4.1
5.0
4.3
4.1
4.5
3.0
4.6
3.8
4.6
3.9
4.0
4.4
4.0
4.6
4.8
5.0
4.8
3.3
4.7
4.0
4.2
4.0
4.3
4.5
4.8
4.4
4.6
4.0
2.9
5.0
4.4
4.3
4.6
4.2
4.7
4.2
4.4
3.9
3.3
4.3
4.5
3.5
3.8
5.0
4.1
3.6
4.2
3.6
4.4
4.0
4.2
4.4
4.7
4.5
4.9
4.9
5.0
3.9
4.1
3.7
3.6
3.7
3.1
4.0
4.9
4.5
5.0
4.2
5.0
3.8
4.2
4.5
4.4
4.1
3.8
5.0
4.9
3.9
4.5
4.1
4.4
4.5
5.0
3.9
4.2
4.2
4.3
3.9
4.3
4.2
3.5
3.6
4.0
4.3
4.8
4.3
3.6
3.7
3.0
4.0
3.7
4.6
3.7
4.3
4.6
13615:
2.7
13617:
3.7
3.5
3.5
3.2
3.7
3.3
13618:
3.4
2.2
13619:
3.4
3.4
3.1
4.5
4.5
3.5
3.0
2.5
3.1
3.3
3.3
4.3
1362:
4.2
2.3
3.4
2.7
4.6
4.6
2.8
4.2
13620:
4.4
4.2
4.4
3.7
3.4
4.3
3.7
5.0
4.2
4.0
3.7
4.2
2.8
3.9
13621:
3.2
3.4
3.6
3.4
3.4
3.3
2.8
2.7
13622:
3.7
4.1
4.2
4.6
3.5
4.0
4.2
3.9
4.1
4.1
4.9
4.4
3.6
4.3
3.9
3.6
3.9
4.6
4.4
4.4
3.3
3.8
4.6
4.1
3.8
4.7
3.7
3.4
3.7
3.9
4.1
4.2
4.3
4.3
4.3
3.8
3.8
3.5
3.9
4.2
4.0
3.9
3.3
4.2
3.9
3.9
4.3
3.6
3.9
4.0
4.8
3.7
5.0
4.5
4.8
4.4
3.9
3.7
3.6
4.0
3.8
3.7
4.2
3.8
4.3
3.9
4.0
4.3
4.5
4.3
3.2
3.1
4.6
3.8
3.8
3.5
4.2
4.0
3.1
3.3
4.0
4.5
4.8
3.9
3.9
3.8
4.1
3.2
3.9
3.8
2.8
4.2
4.3
3.4
4.2
3.8
4.1
3.8
4.4
4.6
3.8
4.6
4.0
3.6
3.3
4.2
3.6
4.0
4.0
4.2
5.0
3.4
4.1
3.5
3.9
4.6
4.2
4.0
3.8
3.9
4.4
4.1
4.2
4.1
3.4
4.4
5.0
4.0
3.7
4.1
3.5
3.9
3.8
3.8
3.7
3.7
3.9
4.1
4.1
13650:
3.3
4.5
5.0
4.6
4.0
13651:
3.7
4.4
4.0
3.5
3.5
3.6
4.2
3.6
4.1
3.1
3.9
3.7
3.5
3.6
4.3
4.6
4.1
2.4
3.7
2.3
4.8
3.6
3.5
4.7
3.5
4.2
3.8
3.9
5.0
4.1
3.8
3.6
3.4
3.7
4.1
4.1
4.1
3.6
4.1
3.4
4.2
3.1
3.6
4.0
4.3
4.6
4.3
3.2
4.2
3.9
4.1
3.7
4.3
3.4
3.4
3.4
4.2
3.5
3.5
3.7
3.9
3.9
4.0
4.2
3.6
3.9
3.9
2.7
4.2
3.4
3.0
4.2
4.7
3.2
4.1
3.3
3.8
3.4
4.0
3.9
3.4
4.0
4.1
3.4
3.7
3.6
3.8
3.4
4.0
4.5
3.6
3.9
4.4
4.0
4.2
4.2
4.4
4.1
3.8
5.0
4.0
3.8
3.5
4.2
3.3
3.7
2.1
4.6
3.2
3.7
3.4
3.4
3.9
3.5
3.2
4.0
4.7
4.5
3.8
4.0
4.6
3.8
2.9
3.3
4.6
3.8
4.0
3.9
3.0
3.9
4.4
3.9
4.5
3.3
4.6
3.7
4.6
4.7
5.0
3.4
4.4
3.9
4.9
4.0
4.6
3.6
3.6
4.1
4.1
3.5
3.1
2.7
4.3
3.4
3.5
4.0
2.8
4.3
3.7
3.6
4.1
4.8
4.1
3.3
4.3
4.1
3.1
4.2
4.2
3.7
5.0
3.3
3.3
4.9
3.8
3.3
3.1
4.1
4.7
3.7
3.3
3.8
5.0
4.2
3.2
3.4
3.8
4.3
4.1
1.9
4.0
3.9
3.6
4.8
1.1
3.6
3.0
4.2
3.9
4.0
3.6
3.7
4.3
4.5
4.1
4.6
4.4
4.5
3.2
3.5
3.8
4.0
4.5
3.2
4.3
3.8
4.2
4.7
3.0
3.7
4.4
4.3
4.0
4.2
4.1
3.3
4.0
4.0
4.6
3.2
2.4
4.1
4.2
3.6
3.8
4.0
3.5
3.0
3.8
4.2
3.7
4.3
4.3
4.6
3.7
4.5
4.7
4.5
4.4
4.1
3.9
3.0
4.2
4.0
4.1
3.9
4.2
3.5
4.7
3.6
3.9
3.9
3.7
13652:
1.5
2.6
2.5
2.8
2.5
2.2
2.3
1.8
2.2
2.7
3.0
3.2
3.1
2.7
2.7
2.6
3.1
2.7
2.4
2.4
2.5
1.8
13653:
3.5
3.8
2.8
3.6
3.6
3.6
3.6
4.8
4.1
4.8
3.8
3.8
4.0
3.4
4.2
3.6
3.0
3.3
3.1
3.7
3.0
3.6
3.1
3.8
0.95
